\relax 
\providecommand\HyperFirstAtBeginDocument{\AtBeginDocument}
\HyperFirstAtBeginDocument{\ifx\hyper@anchor\@undefined
\global\let\oldcontentsline\contentsline
\gdef\contentsline#1#2#3#4{\oldcontentsline{#1}{#2}{#3}}
\global\let\oldnewlabel\newlabel
\gdef\newlabel#1#2{\newlabelxx{#1}#2}
\gdef\newlabelxx#1#2#3#4#5#6{\oldnewlabel{#1}{{#2}{#3}}}
\AtEndDocument{\ifx\hyper@anchor\@undefined
\let\contentsline\oldcontentsline
\let\newlabel\oldnewlabel
\fi}
\fi}
\global\let\hyper@last\relax 
\gdef\HyperFirstAtBeginDocument#1{#1}
\providecommand\HyField@AuxAddToFields[1]{}
\citation{svr}
\citation{wiki}
\citation{smo}
\@writefile{toc}{\contentsline {section}{\numberline {I}Background}{2}{section.1}}
\@writefile{toc}{\contentsline {section}{\numberline {II}Implementation Details}{2}{section.2}}
\@writefile{toc}{\contentsline {section}{\numberline {III}Line Fitting Results}{2}{section.3}}
\@writefile{lof}{\contentsline {figure}{\numberline {1}{\ignorespaces Raw image 1}}{3}{figure.1}}
\@writefile{lof}{\contentsline {figure}{\numberline {2}{\ignorespaces Least square 1}}{3}{figure.2}}
\@writefile{lof}{\contentsline {figure}{\numberline {3}{\ignorespaces SVR 1}}{3}{figure.3}}
\@writefile{lof}{\contentsline {figure}{\numberline {4}{\ignorespaces Raw image 2}}{4}{figure.4}}
\@writefile{lof}{\contentsline {figure}{\numberline {5}{\ignorespaces Least square 2}}{4}{figure.5}}
\@writefile{lof}{\contentsline {figure}{\numberline {6}{\ignorespaces SVR 2}}{4}{figure.6}}
\@writefile{lof}{\contentsline {figure}{\numberline {7}{\ignorespaces Raw image 3}}{5}{figure.7}}
\@writefile{lof}{\contentsline {figure}{\numberline {8}{\ignorespaces Least square 3}}{5}{figure.8}}
\@writefile{lof}{\contentsline {figure}{\numberline {9}{\ignorespaces SVR 3}}{5}{figure.9}}
\@writefile{lof}{\contentsline {figure}{\numberline {10}{\ignorespaces Raw image 4}}{6}{figure.10}}
\@writefile{lof}{\contentsline {figure}{\numberline {11}{\ignorespaces Least square 4}}{6}{figure.11}}
\@writefile{lof}{\contentsline {figure}{\numberline {12}{\ignorespaces SVR 4}}{6}{figure.12}}
\@writefile{lof}{\contentsline {figure}{\numberline {13}{\ignorespaces Raw image 5}}{7}{figure.13}}
\@writefile{lof}{\contentsline {figure}{\numberline {14}{\ignorespaces Least square 5}}{7}{figure.14}}
\@writefile{lof}{\contentsline {figure}{\numberline {15}{\ignorespaces SVR 5}}{7}{figure.15}}
\@writefile{lof}{\contentsline {figure}{\numberline {16}{\ignorespaces Raw image 6}}{8}{figure.16}}
\@writefile{lof}{\contentsline {figure}{\numberline {17}{\ignorespaces Least square 6}}{8}{figure.17}}
\@writefile{lof}{\contentsline {figure}{\numberline {18}{\ignorespaces SVR 6}}{8}{figure.18}}
\@writefile{lof}{\contentsline {figure}{\numberline {19}{\ignorespaces Raw image 1}}{9}{figure.19}}
\@writefile{lof}{\contentsline {figure}{\numberline {20}{\ignorespaces Least square 1}}{9}{figure.20}}
\@writefile{lof}{\contentsline {figure}{\numberline {21}{\ignorespaces SVR 1}}{9}{figure.21}}
\@writefile{lof}{\contentsline {figure}{\numberline {22}{\ignorespaces Raw image 2}}{10}{figure.22}}
\@writefile{lof}{\contentsline {figure}{\numberline {23}{\ignorespaces Least square 2}}{10}{figure.23}}
\@writefile{lof}{\contentsline {figure}{\numberline {24}{\ignorespaces SVR 2}}{10}{figure.24}}
\@writefile{lof}{\contentsline {figure}{\numberline {25}{\ignorespaces Raw image 3}}{11}{figure.25}}
\@writefile{lof}{\contentsline {figure}{\numberline {26}{\ignorespaces Least square 3}}{11}{figure.26}}
\@writefile{lof}{\contentsline {figure}{\numberline {27}{\ignorespaces SVR 3}}{11}{figure.27}}
\@writefile{lof}{\contentsline {figure}{\numberline {28}{\ignorespaces Raw image 4}}{12}{figure.28}}
\@writefile{lof}{\contentsline {figure}{\numberline {29}{\ignorespaces Least square 4}}{12}{figure.29}}
\@writefile{lof}{\contentsline {figure}{\numberline {30}{\ignorespaces SVR 4}}{12}{figure.30}}
\@writefile{lof}{\contentsline {figure}{\numberline {31}{\ignorespaces Raw image 5}}{13}{figure.31}}
\@writefile{lof}{\contentsline {figure}{\numberline {32}{\ignorespaces Least square 5}}{13}{figure.32}}
\@writefile{lof}{\contentsline {figure}{\numberline {33}{\ignorespaces SVR 5}}{13}{figure.33}}
\@writefile{lof}{\contentsline {figure}{\numberline {34}{\ignorespaces Raw image 6}}{14}{figure.34}}
\@writefile{lof}{\contentsline {figure}{\numberline {35}{\ignorespaces Least square 6}}{14}{figure.35}}
\@writefile{lof}{\contentsline {figure}{\numberline {36}{\ignorespaces SVR 6}}{14}{figure.36}}
\@writefile{toc}{\contentsline {section}{\numberline {IV}Circle Fitting Results}{15}{section.4}}
\@writefile{lof}{\contentsline {figure}{\numberline {37}{\ignorespaces Raw image 1}}{16}{figure.37}}
\@writefile{lof}{\contentsline {figure}{\numberline {38}{\ignorespaces Least square 1}}{16}{figure.38}}
\@writefile{lof}{\contentsline {figure}{\numberline {39}{\ignorespaces SVR 1}}{16}{figure.39}}
\@writefile{lof}{\contentsline {figure}{\numberline {40}{\ignorespaces Raw image 2}}{17}{figure.40}}
\@writefile{lof}{\contentsline {figure}{\numberline {41}{\ignorespaces Least square 2}}{17}{figure.41}}
\@writefile{lof}{\contentsline {figure}{\numberline {42}{\ignorespaces SVR 2}}{17}{figure.42}}
\@writefile{lof}{\contentsline {figure}{\numberline {43}{\ignorespaces Raw image 3}}{18}{figure.43}}
\@writefile{lof}{\contentsline {figure}{\numberline {44}{\ignorespaces Least square 3}}{18}{figure.44}}
\@writefile{lof}{\contentsline {figure}{\numberline {45}{\ignorespaces SVR 3}}{18}{figure.45}}
\@writefile{lof}{\contentsline {figure}{\numberline {46}{\ignorespaces Raw image 4}}{19}{figure.46}}
\@writefile{lof}{\contentsline {figure}{\numberline {47}{\ignorespaces Least square 4}}{19}{figure.47}}
\@writefile{lof}{\contentsline {figure}{\numberline {48}{\ignorespaces SVR 4}}{19}{figure.48}}
\@writefile{lof}{\contentsline {figure}{\numberline {49}{\ignorespaces Raw image 5}}{20}{figure.49}}
\@writefile{lof}{\contentsline {figure}{\numberline {50}{\ignorespaces Least square 5}}{20}{figure.50}}
\@writefile{lof}{\contentsline {figure}{\numberline {51}{\ignorespaces SVR 5}}{20}{figure.51}}
\@writefile{lof}{\contentsline {figure}{\numberline {52}{\ignorespaces Raw image 6}}{21}{figure.52}}
\@writefile{lof}{\contentsline {figure}{\numberline {53}{\ignorespaces Least square 6}}{21}{figure.53}}
\@writefile{lof}{\contentsline {figure}{\numberline {54}{\ignorespaces SVR 6}}{21}{figure.54}}
\bibcite{svr}{1}
\bibcite{wiki}{2}
\bibcite{smo}{3}
\bibcite{matlab}{4}
\@writefile{toc}{\contentsline {section}{References}{22}{section*.2}}
