\contentsline {section}{\numberline {I}Background}{2}{section.1}
\contentsline {section}{\numberline {II}Implementation Details}{2}{section.2}
\contentsline {section}{\numberline {III}Line Fitting Results}{2}{section.3}
\contentsline {section}{\numberline {IV}Circle Fitting Results}{15}{section.4}
\contentsline {section}{References}{22}{section*.2}
